…
  # Set date as a Date Data type
  mutate(
    MSMT_DATE = as.Date(MSMT_DATE)
  ) %>% 
  
  # Remove outlier well
  subset(
    MSMT_DATE >= "2000-01-01" & SITE_CODE != "357898N1192302W001", # Outlier
    select=c("SITE_CODE", "MSMT_DATE", "GWE", "post_SGMA")
  ) %>% 
  as_tibble()

# Result: gwe_data - a tibble of each GWE measurement
# 
# # A tibble: 243,342 × 4
#   SITE_CODE          MSMT_DATE    GWE post_SGMA
#   <chr>              <date>     <dbl> <chr>    
# 1 394559N1220854W001 2011-10-11  79.6 Pre_SGMA 
# 2 390174N1214630W003 2008-06-07  31.0 Pre_SGMA 
# 3 390284N1215155W001 2011-10-22  40.1 Pre_SGMA 
# 4 390174N1214630W002 2011-10-04  45.7 Pre_SGMA 
# 5 363500N1197800W003 2011-10-28 209.  Pre_SGMA 
# # ℹ 243,337 more rows
```
…
  # Put slopes in units of change/year
  mutate(
    slope = estimate*365
  ) %>% 
  
  # Select only desired columns
  select(SITE_CODE, post_SGMA, slope) %>% 
  drop_na(slope)

# RESULT: gwe_reg - a tibble of pre/post SGMA rate of change in 
#                   groundwater elevation
# 
# # A tibble: 1,618 × 4
# # Groups:   SITE_CODE, post_SGMA [1,618]
#   SITE_CODE          post_SGMA   slope           p
#   <chr>              <chr>       <dbl>       <dbl>
# 1 349662N1189211W001 Post_SGMA -13.5   0.00485    
# 2 349836N1189228W001 Post_SGMA  -1.89  0.00335    
# 3 349976N1188463W001 Post_SGMA  -3.09  0.00000884 
# 4 350019N1188149W001 Post_SGMA   0.687 0.000000729
# 5 350033N1189366W001 Post_SGMA  -5.93  0.0313     
# # ℹ 1,613 more rows
```

```{r, 3.1.3 GWE Merge}
# Combine slopes with geodata
gwe_gdf = merge(gwe_reg, gwe_sites, by="SITE_CODE") %>% 
  
  # Change name of lat long 
  mutate(x = LONGITUDE, y = LATITUDE) %>% 
  
  # Select only desired columns
  select(SITE_CODE, post_SGMA, slope, x, y) %>% 
  as_tibble()

# RESULT: gwe_gdf - tibble of gwe_reg slopes with x and y coordinates attached
# 
# # A tibble: 1,618 × 6
#   SITE_CODE          post_SGMA   slope           p     x     y
#   <chr>              <chr>       <dbl>       <dbl> <dbl> <dbl>
# 1 349662N1189211W001 Post_SGMA -13.5   0.00485     -119.  35.0
# 2 349836N1189228W001 Post_SGMA  -1.89  0.00335     -119.  35.0
# 3 349976N1188463W001 Post_SGMA  -3.09  0.00000884  -119.  35.0
# 4 350019N1188149W001 Post_SGMA   0.687 0.000000729 -119.  35.0
# 5 350033N1189366W001 Post_SGMA  -5.93  0.0313      -119.  35.0
# # ℹ 1,613 more rows
```
…
  # Set date as a Date Data type
  mutate(
    gm_date = as.Date(gm_samp_collection_date)
  ) %>% 
  
  # Select only desired columns
  subset(
    select=c("gm_well_id", 'gm_date', 'gm_result', 'chemical', "post_SGMA"),
    gm_samp_collection_date > "2000-01-01"
  ) %>% 
  as_tibble()

# Result: ddw_data - a tibble of each contaminant measurement
# 
# # A tibble: 1,047,850 × 5
#   gm_well_id        gm_date    gm_result chemical          post_SGMA
#   <chr>             <date>         <dbl> <chr>             <chr>    
# 1 CA0104010_003_003 2009-07-21       0.2 Nitrate_as_N_MG/L Pre_SGMA 
# 2 CA0110001_010_010 2008-07-23       1.3 Nitrate_as_N_MG/L Pre_SGMA 
# 3 CA0110001_019_019 2009-07-15       1.6 Nitrate_as_N_MG/L Pre_SGMA 
# 4 CA0110001_047_047 2008-07-16       1.5 Nitrate_as_N_MG/L Pre_SGMA 
# 5 CA0110003_014_014 2009-06-23       6.8 Nitrate_as_N_MG/L Pre_SGMA 
# # ℹ 1,047,845 more rows
```
…
  # Put slopes in units of change/year
  mutate(
    slope = estimate*365 #In units of x/year
  ) %>% 
  
  # Select only desired columns
  select(gm_well_id, post_SGMA, chemical, slope) %>% 
  drop_na(slope)

# RESULT: ddw_reg - a tibble of pre/post SGMA rate of change in 
#                   contaminant concentration
# 
# # A tibble: 5,008 × 5
# # Groups:   gm_well_id, post_SGMA, chemical [5,008]
#   gm_well_id        post_SGMA chemical            slope          p
#   <chr>             <chr>     <chr>               <dbl>      <dbl>
# 1 CA0105002_001_001 Post_SGMA Nitrate_as_N_MG/L -0.130  0.0327    
# 2 CA0105002_001_001 Pre_SGMA  Nitrate_as_N_MG/L -0.0916 0.00577   
# 3 CA0105016_001_001 Post_SGMA Nitrate_as_N_MG/L -0.0952 0.00000234
# 4 CA0300062_001_001 Pre_SGMA  Nitrate_as_N_MG/L -0.132  0.0489    
# 5 CA0300524_001_001 Post_SGMA Arsenic_UG/L      29.0    0.0328    
# # ℹ 5,003 more rows
```

```{r, 3.2.3 Merge DDW}
# Combine slopes with geodata
ddw_gdf = merge(ddw_reg, gama_sites, by="gm_well_id") %>% 
  
  # Change name of lat long
  mutate(x = gm_longitude, y = gm_latitude) %>% 
  
  # Select only desired Columns
  select(gm_well_id, post_SGMA, chemical, slope, x, y) %>% 
  as_tibble()

# RESULT: ddw_gdf - tibble of ddw_reg slopes with x and y coordinates attached
# 
# # A tibble: 4,739 × 7
#   gm_well_id        post_SGMA chemical             slope       p     x     y
#   <chr>             <chr>     <chr>                <dbl>   <dbl> <dbl> <dbl>
# 1 CA0105002_001_001 Post_SGMA Nitrate_as_N_MG/L -0.130   0.0327  -122.  37.8
# 2 CA0105002_001_001 Pre_SGMA  Nitrate_as_N_MG/L -0.0916  0.00577 -122.  37.8
# 3 CA0300062_001_001 Pre_SGMA  Nitrate_as_N_MG/L -0.132   0.0489  -121.  38.5
# 4 CA0300524_001_001 Post_SGMA Arsenic_UG/L      29.0     0.0328  -121.  38.3
# 5 CA0310008_002_002 Post_SGMA Nitrate_as_N_MG/L -0.00678 0.0160  -121.  38.2
# # ℹ 4,734 more rows
```
…
